fold_id,ground-truth,prediction
0,1,3
0,1,3
0,1,3
0,1,3
0,1,2
0,1,2
0,2,2
0,2,3
0,2,2
0,2,1
0,2,2
0,2,2
0,2,1
0,2,2
0,2,2
0,2,3
0,3,3
0,3,3
0,3,3
0,3,3
0,3,3
0,3,3
0,3,3
0,3,3
0,3,3
0,3,3
0,3,3
0,3,3
0,3,3
0,3,3
0,3,3
1,1,2
1,1,2
1,1,2
1,1,2
1,1,2
1,1,2
1,2,2
1,2,2
1,2,3
1,2,3
1,2,3
1,2,2
1,2,2
1,2,2
1,2,2
1,2,2
1,3,3
1,3,3
1,3,3
1,3,3
1,3,2
1,3,3
1,3,3
1,3,3
1,3,3
1,3,3
1,3,2
1,3,2
1,3,2
1,3,2
1,3,2
2,1,2
2,1,1
2,1,2
2,1,2
2,1,3
2,1,2
2,2,3
2,2,2
2,2,2
2,2,2
2,2,2
2,2,1
2,2,3
2,2,3
2,2,3
2,2,2
2,3,3
2,3,3
2,3,3
2,3,3
2,3,3
2,3,3
2,3,3
2,3,3
2,3,3
2,3,3
2,3,3
2,3,3
2,3,3
2,3,3
2,3,3
3,1,2
3,1,2
3,1,2
3,1,2
3,1,1
3,1,2
3,2,2
3,2,2
3,2,2
3,2,2
3,2,1
3,2,2
3,2,2
3,2,2
3,2,2
3,2,2
3,3,1
3,3,3
3,3,3
3,3,3
3,3,3
3,3,3
3,3,3
3,3,3
3,3,3
3,3,3
3,3,3
3,3,3
3,3,3
3,3,2
3,3,3
4,1,1
4,1,2
4,1,2
4,1,2
4,1,1
4,1,3
4,2,2
4,2,2
4,2,2
4,2,3
4,2,3
4,2,3
4,2,2
4,2,2
4,2,2
4,2,3
4,3,3
4,3,3
4,3,3
4,3,3
4,3,3
4,3,3
4,3,3
4,3,3
4,3,3
4,3,3
4,3,1
4,3,3
4,3,3
4,3,3
4,3,3
5,1,2
5,1,2
5,1,1
5,1,2
5,1,2
5,1,2
5,2,2
5,2,3
5,2,2
5,2,2
5,2,3
5,2,2
5,2,2
5,2,2
5,2,1
5,2,2
5,3,3
5,3,3
5,3,3
5,3,3
5,3,3
5,3,3
5,3,3
5,3,3
5,3,3
5,3,3
5,3,3
5,3,3
5,3,3
5,3,3
5,3,3
6,1,2
6,1,2
6,1,2
6,1,2
6,1,2
6,1,2
6,2,2
6,2,2
6,2,2
6,2,2
6,2,2
6,2,2
6,2,2
6,2,2
6,2,2
6,2,2
6,3,3
6,3,3
6,3,3
6,3,3
6,3,2
6,3,3
6,3,3
6,3,3
6,3,3
6,3,3
6,3,3
6,3,3
6,3,3
6,3,3
6,3,2
7,1,2
7,1,2
7,1,2
7,1,2
7,1,1
7,1,1
7,2,2
7,2,3
7,2,2
7,2,2
7,2,2
7,2,2
7,2,2
7,2,2
7,2,3
7,2,2
7,3,3
7,3,3
7,3,3
7,3,3
7,3,2
7,3,3
7,3,3
7,3,2
7,3,2
7,3,2
7,3,3
7,3,3
7,3,3
7,3,3
7,3,3
8,1,2
8,1,2
8,1,2
8,1,2
8,1,2
8,1,2
8,2,2
8,2,2
8,2,2
8,2,2
8,2,2
8,2,2
8,2,2
8,2,2
8,2,3
8,2,3
8,3,2
8,3,3
8,3,3
8,3,3
8,3,3
8,3,3
8,3,3
8,3,3
8,3,3
8,3,3
8,3,3
8,3,3
8,3,3
8,3,3
8,3,3
9,1,1
9,1,1
9,1,1
9,1,1
9,1,2
9,1,2
9,2,2
9,2,3
9,2,2
9,2,2
9,2,2
9,2,1
9,2,1
9,2,2
9,2,2
9,2,2
9,3,3
9,3,3
9,3,2
9,3,3
9,3,3
9,3,3
9,3,3
9,3,3
9,3,3
9,3,1
9,3,3
9,3,3
9,3,3
9,3,3
9,3,1
