fold_id,ground-truth,prediction
0,1,2
0,1,2
0,1,2
0,1,2
0,1,2
0,1,2
0,1,2
0,1,2
0,1,2
0,1,2
0,1,2
0,1,2
0,1,2
0,1,2
0,1,2
0,1,2
0,1,2
0,1,2
0,1,2
0,1,2
0,1,2
0,1,2
0,1,2
0,1,2
0,1,2
0,1,2
0,1,2
0,1,2
0,1,2
0,1,2
0,2,2
0,2,2
0,2,2
0,2,2
0,2,2
0,2,2
0,2,2
0,2,2
0,2,2
0,2,2
0,2,2
0,2,2
0,2,2
0,2,2
0,2,2
0,2,2
0,2,2
0,2,2
0,2,2
0,2,2
0,2,2
0,2,2
0,2,2
0,2,2
0,2,2
0,2,2
0,2,2
0,2,2
0,2,2
0,2,2
0,2,2
0,2,2
0,2,2
0,2,2
0,2,2
0,2,2
0,2,2
0,2,2
0,2,2
0,2,2
0,2,2
0,2,2
0,2,2
0,2,2
0,2,2
0,2,2
0,2,2
0,2,2
0,2,2
0,2,2
0,2,2
0,2,2
0,2,2
0,2,2
0,2,2
0,2,2
0,2,2
0,2,2
0,2,2
0,2,2
0,2,2
0,2,2
0,2,2
0,2,2
0,2,2
0,2,2
0,2,2
0,2,2
0,2,2
0,2,2
1,1,2
1,1,2
1,1,2
1,1,2
1,1,2
1,1,2
1,1,2
1,1,2
1,1,2
1,1,2
1,1,2
1,1,2
1,1,2
1,1,2
1,1,2
1,1,2
1,1,2
1,1,2
1,1,2
1,1,2
1,1,2
1,1,2
1,1,2
1,1,2
1,1,2
1,1,2
1,1,2
1,1,2
1,1,2
1,1,2
1,2,2
1,2,2
1,2,2
1,2,2
1,2,2
1,2,2
1,2,2
1,2,2
1,2,2
1,2,2
1,2,2
1,2,2
1,2,2
1,2,2
1,2,2
1,2,2
1,2,2
1,2,2
1,2,2
1,2,2
1,2,2
1,2,2
1,2,2
1,2,2
1,2,2
1,2,2
1,2,2
1,2,2
1,2,2
1,2,2
1,2,2
1,2,2
1,2,2
1,2,2
1,2,2
1,2,2
1,2,2
1,2,2
1,2,2
1,2,2
1,2,2
1,2,2
1,2,2
1,2,2
1,2,2
1,2,2
1,2,2
1,2,2
1,2,2
1,2,2
1,2,2
1,2,2
1,2,2
1,2,2
1,2,2
1,2,2
1,2,2
1,2,2
1,2,2
1,2,2
1,2,2
1,2,2
1,2,2
1,2,2
1,2,2
1,2,2
1,2,2
1,2,2
1,2,2
1,2,2
2,1,2
2,1,2
2,1,2
2,1,2
2,1,2
2,1,2
2,1,2
2,1,2
2,1,2
2,1,2
2,1,2
2,1,2
2,1,2
2,1,2
2,1,2
2,1,2
2,1,2
2,1,2
2,1,2
2,1,2
2,1,2
2,1,2
2,1,2
2,1,2
2,1,2
2,1,2
2,1,2
2,1,2
2,1,2
2,1,2
2,2,2
2,2,2
2,2,2
2,2,2
2,2,2
2,2,2
2,2,2
2,2,2
2,2,2
2,2,2
2,2,2
2,2,2
2,2,2
2,2,2
2,2,2
2,2,2
2,2,2
2,2,2
2,2,2
2,2,2
2,2,2
2,2,2
2,2,2
2,2,2
2,2,2
2,2,2
2,2,2
2,2,2
2,2,2
2,2,2
2,2,2
2,2,2
2,2,2
2,2,2
2,2,2
2,2,2
2,2,2
2,2,2
2,2,2
2,2,2
2,2,2
2,2,2
2,2,2
2,2,2
2,2,2
2,2,2
2,2,2
2,2,2
2,2,2
2,2,2
2,2,2
2,2,2
2,2,2
2,2,2
2,2,2
2,2,2
2,2,2
2,2,2
2,2,2
2,2,2
2,2,2
2,2,2
2,2,2
2,2,2
2,2,2
2,2,2
2,2,2
2,2,2
2,2,2
2,2,2
3,1,2
3,1,2
3,1,2
3,1,2
3,1,2
3,1,2
3,1,2
3,1,2
3,1,2
3,1,2
3,1,2
3,1,2
3,1,2
3,1,2
3,1,2
3,1,2
3,1,2
3,1,2
3,1,2
3,1,2
3,1,2
3,1,2
3,1,2
3,1,2
3,1,2
3,1,2
3,1,2
3,1,2
3,1,2
3,1,2
3,2,2
3,2,2
3,2,2
3,2,2
3,2,2
3,2,2
3,2,2
3,2,2
3,2,2
3,2,2
3,2,2
3,2,2
3,2,2
3,2,2
3,2,2
3,2,2
3,2,2
3,2,2
3,2,2
3,2,2
3,2,2
3,2,2
3,2,2
3,2,2
3,2,2
3,2,2
3,2,2
3,2,2
3,2,2
3,2,2
3,2,2
3,2,2
3,2,2
3,2,2
3,2,2
3,2,2
3,2,2
3,2,2
3,2,2
3,2,2
3,2,2
3,2,2
3,2,2
3,2,2
3,2,2
3,2,2
3,2,2
3,2,2
3,2,2
3,2,2
3,2,2
3,2,2
3,2,2
3,2,2
3,2,2
3,2,2
3,2,2
3,2,2
3,2,2
3,2,2
3,2,2
3,2,2
3,2,2
3,2,2
3,2,2
3,2,2
3,2,2
3,2,2
3,2,2
3,2,2
4,1,2
4,1,2
4,1,2
4,1,2
4,1,2
4,1,2
4,1,2
4,1,2
4,1,2
4,1,2
4,1,2
4,1,2
4,1,2
4,1,2
4,1,2
4,1,2
4,1,2
4,1,2
4,1,2
4,1,2
4,1,2
4,1,2
4,1,2
4,1,2
4,1,2
4,1,2
4,1,2
4,1,2
4,1,2
4,1,2
4,2,2
4,2,2
4,2,2
4,2,2
4,2,2
4,2,2
4,2,2
4,2,2
4,2,2
4,2,2
4,2,2
4,2,2
4,2,2
4,2,2
4,2,2
4,2,2
4,2,2
4,2,2
4,2,2
4,2,2
4,2,2
4,2,2
4,2,2
4,2,2
4,2,2
4,2,2
4,2,2
4,2,2
4,2,2
4,2,2
4,2,2
4,2,2
4,2,2
4,2,2
4,2,2
4,2,2
4,2,2
4,2,2
4,2,2
4,2,2
4,2,2
4,2,2
4,2,2
4,2,2
4,2,2
4,2,2
4,2,2
4,2,2
4,2,2
4,2,2
4,2,2
4,2,2
4,2,2
4,2,2
4,2,2
4,2,2
4,2,2
4,2,2
4,2,2
4,2,2
4,2,2
4,2,2
4,2,2
4,2,2
4,2,2
4,2,2
4,2,2
4,2,2
4,2,2
4,2,2
5,1,2
5,1,2
5,1,2
5,1,2
5,1,2
5,1,2
5,1,2
5,1,2
5,1,2
5,1,2
5,1,2
5,1,2
5,1,2
5,1,2
5,1,2
5,1,2
5,1,2
5,1,2
5,1,2
5,1,2
5,1,2
5,1,2
5,1,2
5,1,2
5,1,2
5,1,2
5,1,2
5,1,2
5,1,2
5,1,2
5,2,2
5,2,2
5,2,2
5,2,2
5,2,2
5,2,2
5,2,2
5,2,2
5,2,2
5,2,2
5,2,2
5,2,2
5,2,2
5,2,2
5,2,2
5,2,2
5,2,2
5,2,2
5,2,2
5,2,2
5,2,2
5,2,2
5,2,2
5,2,2
5,2,2
5,2,2
5,2,2
5,2,2
5,2,2
5,2,2
5,2,2
5,2,2
5,2,2
5,2,2
5,2,2
5,2,2
5,2,2
5,2,2
5,2,2
5,2,2
5,2,2
5,2,2
5,2,2
5,2,2
5,2,2
5,2,2
5,2,2
5,2,2
5,2,2
5,2,2
5,2,2
5,2,2
5,2,2
5,2,2
5,2,2
5,2,2
5,2,2
5,2,2
5,2,2
5,2,2
5,2,2
5,2,2
5,2,2
5,2,2
5,2,2
5,2,2
5,2,2
5,2,2
5,2,2
5,2,2
6,1,2
6,1,2
6,1,2
6,1,2
6,1,2
6,1,2
6,1,2
6,1,2
6,1,2
6,1,2
6,1,2
6,1,2
6,1,2
6,1,2
6,1,2
6,1,2
6,1,2
6,1,2
6,1,2
6,1,2
6,1,2
6,1,2
6,1,2
6,1,2
6,1,2
6,1,2
6,1,2
6,1,2
6,1,2
6,1,2
6,2,2
6,2,2
6,2,2
6,2,2
6,2,2
6,2,2
6,2,2
6,2,2
6,2,2
6,2,2
6,2,2
6,2,2
6,2,2
6,2,2
6,2,2
6,2,2
6,2,2
6,2,2
6,2,2
6,2,2
6,2,2
6,2,2
6,2,2
6,2,2
6,2,2
6,2,2
6,2,2
6,2,2
6,2,2
6,2,2
6,2,2
6,2,2
6,2,2
6,2,2
6,2,2
6,2,2
6,2,2
6,2,2
6,2,2
6,2,2
6,2,2
6,2,2
6,2,2
6,2,2
6,2,2
6,2,2
6,2,2
6,2,2
6,2,2
6,2,2
6,2,2
6,2,2
6,2,2
6,2,2
6,2,2
6,2,2
6,2,2
6,2,2
6,2,2
6,2,2
6,2,2
6,2,2
6,2,2
6,2,2
6,2,2
6,2,2
6,2,2
6,2,2
6,2,2
6,2,2
7,1,2
7,1,2
7,1,2
7,1,2
7,1,2
7,1,2
7,1,2
7,1,2
7,1,2
7,1,2
7,1,2
7,1,2
7,1,2
7,1,2
7,1,2
7,1,2
7,1,2
7,1,2
7,1,2
7,1,2
7,1,2
7,1,2
7,1,2
7,1,2
7,1,2
7,1,2
7,1,2
7,1,2
7,1,2
7,1,2
7,2,2
7,2,2
7,2,2
7,2,2
7,2,2
7,2,2
7,2,2
7,2,2
7,2,2
7,2,2
7,2,2
7,2,2
7,2,2
7,2,2
7,2,2
7,2,2
7,2,2
7,2,2
7,2,2
7,2,2
7,2,2
7,2,2
7,2,2
7,2,2
7,2,2
7,2,2
7,2,2
7,2,2
7,2,2
7,2,2
7,2,2
7,2,2
7,2,2
7,2,2
7,2,2
7,2,2
7,2,2
7,2,2
7,2,2
7,2,2
7,2,2
7,2,2
7,2,2
7,2,2
7,2,2
7,2,2
7,2,2
7,2,2
7,2,2
7,2,2
7,2,2
7,2,2
7,2,2
7,2,2
7,2,2
7,2,2
7,2,2
7,2,2
7,2,2
7,2,2
7,2,2
7,2,2
7,2,2
7,2,2
7,2,2
7,2,2
7,2,2
7,2,2
7,2,2
7,2,2
8,1,2
8,1,2
8,1,2
8,1,2
8,1,2
8,1,2
8,1,2
8,1,2
8,1,2
8,1,2
8,1,2
8,1,2
8,1,2
8,1,2
8,1,2
8,1,2
8,1,2
8,1,2
8,1,2
8,1,2
8,1,2
8,1,2
8,1,2
8,1,2
8,1,2
8,1,2
8,1,2
8,1,2
8,1,2
8,1,2
8,2,2
8,2,2
8,2,2
8,2,2
8,2,2
8,2,2
8,2,2
8,2,2
8,2,2
8,2,2
8,2,2
8,2,2
8,2,2
8,2,2
8,2,2
8,2,2
8,2,2
8,2,2
8,2,2
8,2,2
8,2,2
8,2,2
8,2,2
8,2,2
8,2,2
8,2,2
8,2,2
8,2,2
8,2,2
8,2,2
8,2,2
8,2,2
8,2,2
8,2,2
8,2,2
8,2,2
8,2,2
8,2,2
8,2,2
8,2,2
8,2,2
8,2,2
8,2,2
8,2,2
8,2,2
8,2,2
8,2,2
8,2,2
8,2,2
8,2,2
8,2,2
8,2,2
8,2,2
8,2,2
8,2,2
8,2,2
8,2,2
8,2,2
8,2,2
8,2,2
8,2,2
8,2,2
8,2,2
8,2,2
8,2,2
8,2,2
8,2,2
8,2,2
8,2,2
8,2,2
9,1,2
9,1,2
9,1,2
9,1,2
9,1,2
9,1,2
9,1,2
9,1,2
9,1,2
9,1,2
9,1,2
9,1,2
9,1,2
9,1,2
9,1,2
9,1,2
9,1,2
9,1,2
9,1,2
9,1,2
9,1,2
9,1,2
9,1,2
9,1,2
9,1,2
9,1,2
9,1,2
9,1,2
9,1,2
9,1,2
9,2,2
9,2,2
9,2,2
9,2,2
9,2,2
9,2,2
9,2,2
9,2,2
9,2,2
9,2,2
9,2,2
9,2,2
9,2,2
9,2,2
9,2,2
9,2,2
9,2,2
9,2,2
9,2,2
9,2,2
9,2,2
9,2,2
9,2,2
9,2,2
9,2,2
9,2,2
9,2,2
9,2,2
9,2,2
9,2,2
9,2,2
9,2,2
9,2,2
9,2,2
9,2,2
9,2,2
9,2,2
9,2,2
9,2,2
9,2,2
9,2,2
9,2,2
9,2,2
9,2,2
9,2,2
9,2,2
9,2,2
9,2,2
9,2,2
9,2,2
9,2,2
9,2,2
9,2,2
9,2,2
9,2,2
9,2,2
9,2,2
9,2,2
9,2,2
9,2,2
9,2,2
9,2,2
9,2,2
9,2,2
9,2,2
9,2,2
9,2,2
9,2,2
9,2,2
9,2,2
