class,recall-mean,recall-std,precision-mean,precision-std,f1-measure-mean,f1-measure-std
1,0.100000,0.300000,0.006667,0.020000,0.012500,0.037500
2,0.701126,0.004479,0.998571,0.004286,0.823814,0.003792
