class,recall-mean,recall-std,precision-mean,precision-std,f1-measure-mean,f1-measure-std
1,0.957143,0.065465,0.983333,0.050000,0.967832,0.039583
2,0.965278,0.072768,0.928571,0.095831,0.941090,0.055583
3,0.966667,0.066667,0.955000,0.090692,0.956421,0.055038
